<?xml version="1.0" encoding="UTF-8"?>
<gpx xmlns="http://www.topografix.com/GPX/1/1" creator="ape@map" version="1.1" xmlns:xsi="http://www.w3.org/2001/XMLSchema-instance" xmlns:dklgpx="http://na.na.na/GPX/1/1" xsi:schemaLocation="http://www.topografix.com/GPX/1/1 http://www.topografix.com/GPX/1/1/gpx.xsd">
<metadata>
   <name>ape@map my Phone my Guide</name>
</metadata>
<trk>
   <name>etappe4a-badgastein-tauernschleuse</name>
   <trkseg>
      <trkpt lon="13.1356989277" lat="47.1088803057">
          <ele>1076</ele>
          <time>2017-05-01T16:17:37Z</time>
      </trkpt>
      <trkpt lon="13.135202" lat="47.108992">
          <ele>1081</ele>
          <time>2017-05-01T16:17:49Z</time>
      </trkpt>
      <trkpt lon="13.13458" lat="47.108993">
          <ele>1081</ele>
          <time>2017-05-01T16:17:59Z</time>
      </trkpt>
      <trkpt lon="13.13458" lat="47.108993">
          <ele>1081</ele>
          <time>2017-05-01T16:17:59Z</time>
      </trkpt>
      <trkpt lon="13.1336" lat="47.108622">
          <ele>1081</ele>
          <time>2017-05-01T16:18:17Z</time>
      </trkpt>
      <trkpt lon="13.1336" lat="47.108622">
          <ele>1081</ele>
          <time>2017-05-01T16:18:17Z</time>
      </trkpt>
      <trkpt lon="13.133518" lat="47.108484">
          <ele>1081</ele>
          <time>2017-05-01T16:18:21Z</time>
      </trkpt>
      <trkpt lon="13.133167" lat="47.108501">
          <ele>1082</ele>
          <time>2017-05-01T16:18:27Z</time>
      </trkpt>
      <trkpt lon="13.132098" lat="47.10846">
          <ele>1082</ele>
          <time>2017-05-01T16:18:44Z</time>
      </trkpt>
      <trkpt lon="13.131273" lat="47.108012">
          <ele>1083</ele>
          <time>2017-05-01T16:19:01Z</time>
      </trkpt>
      <trkpt lon="13.130671" lat="47.107559">
          <ele>1083</ele>
          <time>2017-05-01T16:19:15Z</time>
      </trkpt>
      <trkpt lon="13.130224" lat="47.107114">
          <ele>1083</ele>
          <time>2017-05-01T16:19:28Z</time>
      </trkpt>
      <trkpt lon="13.129914" lat="47.106068">
          <ele>1083</ele>
          <time>2017-05-01T16:19:53Z</time>
      </trkpt>
      <trkpt lon="13.129159" lat="47.105053">
          <ele>1084</ele>
          <time>2017-05-01T16:20:20Z</time>
      </trkpt>
      <trkpt lon="13.127751" lat="47.103616">
          <ele>1084</ele>
          <time>2017-05-01T16:21:01Z</time>
      </trkpt>
      <trkpt lon="13.127203" lat="47.102693">
          <ele>1084</ele>
          <time>2017-05-01T16:21:24Z</time>
      </trkpt>
      <trkpt lon="13.126724" lat="47.101467">
          <ele>1085</ele>
          <time>2017-05-01T16:21:54Z</time>
      </trkpt>
      <trkpt lon="13.126512" lat="47.100607">
          <ele>1085</ele>
          <time>2017-05-01T16:22:14Z</time>
      </trkpt>
      <trkpt lon="13.126358" lat="47.10024">
          <ele>1086</ele>
          <time>2017-05-01T16:22:23Z</time>
      </trkpt>
      <trkpt lon="13.125778" lat="47.099663">
          <ele>1086</ele>
          <time>2017-05-01T16:22:40Z</time>
      </trkpt>
      <trkpt lon="13.124566" lat="47.098728">
          <ele>1088</ele>
          <time>2017-05-01T16:23:09Z</time>
      </trkpt>
      <trkpt lon="13.123343" lat="47.098119">
          <ele>1090</ele>
          <time>2017-05-01T16:23:34Z</time>
      </trkpt>
      <trkpt lon="13.122228" lat="47.097254">
          <ele>1091</ele>
          <time>2017-05-01T16:24:01Z</time>
      </trkpt>
      <trkpt lon="13.121458" lat="47.096717">
          <ele>1092</ele>
          <time>2017-05-01T16:24:18Z</time>
      </trkpt>
      <trkpt lon="13.120114" lat="47.096121">
          <ele>1094</ele>
          <time>2017-05-01T16:24:44Z</time>
      </trkpt>
      <trkpt lon="13.119321" lat="47.095597">
          <ele>1095</ele>
          <time>2017-05-01T16:25:02Z</time>
      </trkpt>
      <trkpt lon="13.118664" lat="47.094672">
          <ele>1097</ele>
          <time>2017-05-01T16:25:26Z</time>
      </trkpt>
      <trkpt lon="13.117969" lat="47.093063">
          <ele>1100</ele>
          <time>2017-05-01T16:26:06Z</time>
      </trkpt>
      <trkpt lon="13.117969" lat="47.093063">
          <ele>1100</ele>
          <time>2017-05-01T16:26:06Z</time>
      </trkpt>
      <trkpt lon="13.117431" lat="47.092008">
          <ele>1102</ele>
          <time>2017-05-01T16:26:32Z</time>
      </trkpt>
      <trkpt lon="13.117318" lat="47.091156">
          <ele>1104</ele>
          <time>2017-05-01T16:26:52Z</time>
      </trkpt>
      <trkpt lon="13.117401" lat="47.090144">
          <ele>1106</ele>
          <time>2017-05-01T16:27:16Z</time>
      </trkpt>
      <trkpt lon="13.117866" lat="47.089172">
          <ele>1108</ele>
          <time>2017-05-01T16:27:40Z</time>
      </trkpt>
      <trkpt lon="13.117866" lat="47.089172">
          <ele>1108</ele>
          <time>2017-05-01T16:27:40Z</time>
      </trkpt>
      <trkpt lon="13.118334" lat="47.088619">
          <ele>1111</ele>
          <time>2017-05-01T16:27:55Z</time>
      </trkpt>
      <trkpt lon="13.118626" lat="47.087999">
          <ele>1114</ele>
          <time>2017-05-01T16:28:10Z</time>
      </trkpt>
      <trkpt lon="13.119373" lat="47.087746">
          <ele>1118</ele>
          <time>2017-05-01T16:28:24Z</time>
      </trkpt>
      <trkpt lon="13.119872" lat="47.087557">
          <ele>1120</ele>
          <time>2017-05-01T16:28:33Z</time>
      </trkpt>
      <trkpt lon="13.119872" lat="47.087557">
          <ele>1120</ele>
          <time>2017-05-01T16:28:33Z</time>
      </trkpt>
      <trkpt lon="13.11959" lat="47.087077">
          <ele>1123</ele>
          <time>2017-05-01T16:28:45Z</time>
      </trkpt>
      <trkpt lon="13.119691" lat="47.086889">
          <ele>1125</ele>
          <time>2017-05-01T16:28:50Z</time>
      </trkpt>
      <trkpt lon="13.120151" lat="47.086468">
          <ele>1129</ele>
          <time>2017-05-01T16:29:02Z</time>
      </trkpt>
      <trkpt lon="13.120489" lat="47.086006">
          <ele>1133</ele>
          <time>2017-05-01T16:29:14Z</time>
      </trkpt>
      <trkpt lon="13.121131" lat="47.085637">
          <ele>1137</ele>
          <time>2017-05-01T16:29:28Z</time>
      </trkpt>
      <trkpt lon="13.12203" lat="47.084983">
          <ele>1144</ele>
          <time>2017-05-01T16:29:49Z</time>
      </trkpt>
      <trkpt lon="13.122756" lat="47.084336">
          <ele>1150</ele>
          <time>2017-05-01T16:30:08Z</time>
      </trkpt>
      <trkpt lon="13.123166" lat="47.084211">
          <ele>1153</ele>
          <time>2017-05-01T16:30:15Z</time>
      </trkpt>
      <trkpt lon="13.123744" lat="47.084229">
          <ele>1156</ele>
          <time>2017-05-01T16:30:25Z</time>
      </trkpt>
      <trkpt lon="13.124285" lat="47.084146">
          <ele>1158</ele>
          <time>2017-05-01T16:30:34Z</time>
      </trkpt>
      <trkpt lon="13.125042" lat="47.083903">
          <ele>1162</ele>
          <time>2017-05-01T16:30:47Z</time>
      </trkpt>
      <trkpt lon="13.12517" lat="47.083874">
          <ele>1162</ele>
          <time>2017-05-01T16:30:49Z</time>
      </trkpt>
      <trkpt lon="13.125932" lat="47.083763">
          <ele>1164</ele>
          <time>2017-05-01T16:31:02Z</time>
      </trkpt>
      <trkpt lon="13.125978" lat="47.083715">
          <ele>1164</ele>
          <time>2017-05-01T16:31:03Z</time>
      </trkpt>
      <trkpt lon="13.126719" lat="47.083269">
          <ele>1167</ele>
          <time>2017-05-01T16:31:19Z</time>
      </trkpt>
      <trkpt lon="13.127233" lat="47.082978">
          <ele>1168</ele>
          <time>2017-05-01T16:31:30Z</time>
      </trkpt>
      <trkpt lon="13.128021" lat="47.082402">
          <ele>1170</ele>
          <time>2017-05-01T16:31:48Z</time>
      </trkpt>
      <trkpt lon="13.128693" lat="47.082015">
          <ele>1171</ele>
          <time>2017-05-01T16:32:02Z</time>
      </trkpt>
      <trkpt lon="13.128693" lat="47.082015">
          <ele>1171</ele>
          <time>2017-05-01T16:32:02Z</time>
      </trkpt>
      <trkpt lon="13.131003" lat="47.080714">
          <ele>1176</ele>
          <time>2017-05-01T16:32:51Z</time>
      </trkpt>
   </trkseg>
</trk>
</gpx>
